{
  "project_info": {
    "project_number": "322225335510",
    "project_id": "cookpad-2e98b",
    "storage_bucket": "cookpad-2e98b.appspot.com"
  },
  "client": [
    {
      "client_info": {
        "mobilesdk_app_id": "1:322225335510:android:7f2477d5723c69a1f66d77",
        "android_client_info": {
          "package_name": "com.example.cookpad"
        }
      },
      "oauth_client": [
        {
          "client_id": "322225335510-cs7hb5b6hv5a42085jq1o7rui81mluhr.apps.googleusercontent.com",
          "client_type": 3
        }
      ],
      "api_key": [
        {
          "current_key": "AIzaSyD83VYB5VCsGw1rIQoCDELnBhTthYktFAc"
        }
      ],
      "services": {
        "appinvite_service": {
          "other_platform_oauth_client": [
            {
              "client_id": "322225335510-cs7hb5b6hv5a42085jq1o7rui81mluhr.apps.googleusercontent.com",
              "client_type": 3
            }
          ]
        }
      }
    }
  ],
  "configuration_version": "1"
}